grid_2                                                                         
bun_zipper_res4 converted into geo format : http://graphics.stanford.edu/data/3Dscanrep/                  
node id off                                                                    
element id off                                                                 
part                                                                           
         1
stanford_bunny_low_res                                                                      
coordinates 
453
-0.0312216
-0.0446774
-0.0683011
-0.00600095
-0.0173568
0.0330513
0.0400873
-0.0301802
0.0304193
-0.0640822
0.0447046
-0.0316754
-0.0848523
-0.0688547
0.00595475
0.0404629
0.0387342
-0.0914513
-0.0818721
-0.067218
-0.0795687
0.00596007
-0.0516317
-0.0779781
-0.00590708
-0.0479133
-0.082427
0.01744
-0.0906868
-0.0294038
-0.0797891
-0.018288
-0.0202326
-0.0377039
0.00582164
-0.0435389
0.0188699
-0.0440101
-0.089811
-0.057352
0.0442622
0.0412343
-0.0563953
-0.0206135
-0.0729893
-0.0673967
-0.0904864
0.0273142
0.041907
-0.0702109
-0.0061847
0.0300138
-0.0175129
-0.0763977
-0.0854227
0.0370431
-0.00659732
0.00639794
-0.0559247
-0.0911449
-0.0595109
-0.0176335
-0.066633
-0.0436418
-0.0572759
-0.0763773
-0.0434461
-0.0427118
-0.0254201
-0.014179
-0.0882582
-0.0688695
-0.0679676
0.0188538
-0.036487
-0.0664352
-0.0682606
-0.090925
0.00678622
0.0310139
0.0056976
-0.0706519
0.0059746
0.0184217
0.0147876
-0.00598232
-0.0811312
-0.0787032
0.00581988
-0.0192761
-0.00593116
-0.0893322
-0.00762538
-0.0692263
-0.0298757
-0.0848266
-0.0888516
-0.0305879
-0.0307198
-0.0780612
0.0332714
-0.0677112
-0.075666
-0.082422
-0.0856984
-0.0292804
-0.017732
-0.0656987
-0.0298523
-0.0562502
-0.0666127
-0.0425379
-0.0545308
-0.0413159
-0.0172876
-0.00598119
0.0423724
0.0285741
-0.0331811
-0.0539402
0.0422724
0.0297273
-0.0315639
0.0381804
-0.0284988
-0.0173189
0.00376754
0.0432673
-0.0233322
-0.0056258
0.00529431
-0.0883219
-0.0566374
-0.0296243
-0.00597407
-0.0214122
-0.0161488
-0.0568305
-0.0931466
-0.061862
-0.0855858
0.0336642
0.042771
-0.0434589
-0.0680962
0.0272384
-0.0293932
-0.0762697
-0.0191285
-0.053091
-0.0431978
-0.0833055
0.0144345
-0.0388913
-0.0594359
-0.0702332
-0.0574473
-0.0480038
-0.0107262
-0.0882293
-0.078994
-0.0295675
-0.0817356
-0.0795469
-0.0248608
-0.0664416
-0.0784878
-0.00967101
-0.0566284
-0.0184015
-0.0695952
-0.0412517
-0.0684972
-0.0540036
-0.0169203
-0.00607221
0.00708728
-0.0143174
0.0538923
0.00517855
-0.0431038
-0.0293069
-0.0379555
-0.0561165
-0.0761707
-0.0552181
0.0177004
0.0534583
-0.0869152
-0.0764257
-0.0440959
-0.0312919
-0.0549448
-0.0723735
-0.0553659
-0.0488091
-0.0473086
-0.0803913
-0.041802
-0.00632139
-0.00597054
-0.0294827
-0.0177953
-0.0885261
-0.0674935
0.0463693
-0.0409565
-0.0106656
-0.0532547
0.00530988
-0.0773436
-0.0625087
-0.0688014
-0.0545252
-0.0436768
-0.0185748
-0.00599993
0.00706485
-0.0850269
0.0370111
-0.0683084
-0.055894
0.0381456
-0.0642837
-0.0698696
-0.061796
-0.0622848
-0.0686864
-0.049353
-0.0784177
0.0179416
0.00532732
-0.0556774
-0.0431924
-0.0298626
0.0205955
0.01721
-0.0290125
0.0185443
-0.00588676
-0.0528191
0.0358078
-0.0912064
-0.067874
-0.0441636
0.00749586
-0.0554961
-0.0669044
-0.0501524
-0.0554508
-0.014752
-0.029558
-0.0561854
-0.040984
-0.0320055
0.0250033
-0.046987
-0.0183407
-0.0178406
-0.0569472
0.00583339
-0.0428024
-0.066462
0.0257452
0.0379451
-0.0844262
0.0532504
0.0186424
0.00732515
-0.0314704
0.0286229
0.0581591
0.016864
0.0145778
0.0367248
-0.0198801
0.0150294
0.0210524
0.0298776
0.0368358
0.0574748
0.0316842
-0.0760271
-0.0655396
-0.0806026
0.0189749
0.030684
0.0371888
0.0419366
0.046032
-0.0787921
-0.0293987
-0.0869924
-0.0142186
0.0174795
0.0162141
0.0193248
0.0435544
0.0226191
0.0191348
0.0414633
0.0436925
0.0512872
0.0285777
0.0306748
-0.0184118
-0.0315484
0.0260381
0.0554197
0.0520374
0.0567375
0.0428049
-0.0620037
0.0341128
0.029518
-0.0177887
-0.0417838
-0.00518939
-0.0664059
0.0475414
0.0249138
-0.0299024
0.0218121
-0.0271537
0.0161181
0.031738
0.0418226
0.0514871
-0.0893303
0.0459385
-0.0705433
-0.0429617
-0.0719677
-0.0760529
0.0304173
-0.0771451
0.0202668
-0.0254815
-0.0650541
-0.0647676
-0.0644267
-0.06432
-0.0676
-0.0679534
-0.0573497
-0.0634632
-0.059413
-0.0233834
-0.063538
-0.0193036
-0.0427206
-0.00690237
-0.0656787
-0.0383907
-0.0556585
-0.0416785
-0.0322294
-0.0307385
-0.0429026
-0.0550285
-0.0261858
-0.0552189
-0.0190658
-0.0687629
-0.0730504
-0.0207234
-0.0290792
-0.0328056
-0.0177608
-0.0773687
0.0151616
-0.0845255
-0.0793517
-0.0309728
-0.0355144
-0.068141
-0.0512932
0.0161924
-0.0144478
-0.0173157
-0.0193328
-0.0555479
0.00702627
-0.0148892
0.0175205
-0.00953661
0.00524266
0.0175653
-0.0057907
0.00626556
0.00559979
0.029824
0.00625193
0.0143253
0.00604086
-0.00613413
-0.0346694
-0.00684543
0.0056558
-0.0569732
-0.0422796
-0.0175719
-0.055586
-0.0637884
0.00568561
-0.00338429
-0.0248988
-0.0412513
-0.0735819
-0.018062
-0.031577
-0.00602034
-0.0177811
0.00753447
0.00430437
-0.00593935
-0.0176142
-0.0430308
0.0189222
-0.0299129
0.00512066
0.00103528
-0.00584714
-0.0424621
-0.017873
0.028662
-0.055026
-0.0284733
-0.000947006
0.0193224
-0.0342325
0.00536022
-0.000385714
0.0334119
-0.00589791
-0.0352445
-0.0178078
-0.0261898
-0.0563247
0.00114114
0.0100253
0.00550127
-0.00596581
-0.0330745
-0.0277717
-0.0179091
-0.0419404
0.015243
-0.0554301
-0.0660515
-0.00654912
-0.0307826
-0.0180834
0.126304
0.131204
0.144828
0.130398
0.127613
0.107034
0.10521
0.106322
0.118572
0.159391
0.0927877
0.170395
0.134078
0.122052
0.131024
0.105142
0.102161
0.134136
0.107166
0.156155
0.152875
0.122504
0.145001
0.13255
0.127934
0.129301
0.0928134
0.127694
0.120305
0.17903
0.14376
0.108329
0.181846
0.167987
0.12806
0.130014
0.119862
0.167035
0.132401
0.144989
0.0934526
0.0921731
0.154565
0.159773
0.0656116
0.155256
0.118611
0.117965
0.0916386
0.165303
0.122729
0.0932786
0.162126
0.171291
0.105386
0.110443
0.0427285
0.0437006
0.157606
0.118816
0.128352
0.127605
0.153831
0.169438
0.043243
0.157221
0.15605
0.0421645
0.0886622
0.12627
0.0898687
0.157773
0.142877
0.106293
0.171225
0.117198
0.170398
0.14605
0.115841
0.0930696
0.10589
0.13063
0.130858
0.0423182
0.0909747
0.115409
0.117972
0.144274
0.106226
0.119853
0.130215
0.142745
0.123273
0.178922
0.124252
0.148987
0.0909723
0.122384
0.117989
0.120653
0.108498
0.0928918
0.0911817
0.0951121
0.136903
0.0417747
0.0423864
0.171007
0.170905
0.135013
0.133021
0.155441
0.0714603
0.0906923
0.0921774
0.0940308
0.0672563
0.116909
0.0450744
0.118566
0.0795546
0.0425502
0.0959331
0.105121
0.090492
0.0437942
0.0477551
0.0458291
0.181239
0.0565038
0.0556798
0.105757
0.0470184
0.0543188
0.105897
0.0546976
0.0574363
0.146392
0.119067
0.158417
0.10684
0.0540543
0.0560351
0.117191
0.156721
0.103156
0.178536
0.0912245
0.0985952
0.0567402
0.0555777
0.115643
0.127081
0.123761
0.119905
0.154262
0.152576
0.056366
0.179662
0.106066
0.153984
0.126072
0.15439
0.104194
0.122913
0.159957
0.0705283
0.173225
0.0547031
0.122219
0.146412
0.123196
0.148194
0.055543
0.0682168
0.0677102
0.0673218
0.116971
0.0557547
0.0931738
0.0674388
0.0680733
0.161954
0.0654329
0.155559
0.122506
0.105983
0.0656375
0.0944156
0.161707
0.127453
0.0798298
0.106348
0.110057
0.0919829
0.0660127
0.145156
0.129634
0.105934
0.0931652
0.106138
0.158293
0.106289
0.137839
0.128392
0.0715128
0.117168
0.167541
0.157456
0.0933129
0.0727226
0.149934
0.0685726
0.0808478
0.078916
0.0789703
0.0794548
0.0811917
0.146034
0.110397
0.0803316
0.0792594
0.0881056
0.0396418
0.168536
0.155741
0.16236
0.0923704
0.139298
0.110126
0.0792747
0.123661
0.0935206
0.0921154
0.0940124
0.087113
0.127663
0.106719
0.0948112
0.116622
0.162649
0.0958594
0.131415
0.106952
0.104918
0.09835
0.103898
0.115717
0.140326
0.13242
0.181897
0.161783
0.111277
0.110496
0.110468
0.110611
0.147434
0.0352362
0.170484
0.0349416
0.0351076
0.0351574
0.104777
0.0459137
0.0817167
0.0797714
0.04759
0.0536035
0.118243
0.157066
0.056876
0.0550016
0.089935
0.0585769
0.0918184
0.166404
0.0677357
0.0681161
0.0679936
0.0678495
0.0682218
0.0785087
0.175704
0.0607885
0.081447
0.121506
0.0795461
0.0792484
0.0795911
0.0793694
0.0707773
0.115917
0.113518
0.174013
0.0352131
0.0358475
0.0358322
0.0411101
0.0406052
0.042782
0.0456301
0.0411968
0.0463959
0.105181
0.0445124
0.0948059
0.0343023
0.0475902
0.0686378
0.055073
0.0542224
0.0553286
0.167422
0.0541776
0.0560564
0.115911
0.0357602
0.043046
0.0343649
0.0712174
0.0825163
0.0426031
0.0515865
0.0351608
0.11563
0.0679983
0.0675201
0.0637279
0.128309
0.0796307
0.149897
0.0430242
0.177848
0.177651
0.118495
0.167706
0.092861
0.0798697
0.0353259
0.0350792
0.0414591
0.0352261
0.0340299
0.0418588
0.0431548
0.0414321
0.0471382
0.0656416
0.071665
0.0810128
0.0343557
0.03464
0.0408332
0.0419218
0.0432866
0.0420276
0.0446593
0.0563307
0.0561897
0.0566557
0.0568836
0.117461
0.0546695
0.0686694
0.06542
0.0672793
0.067426
0.0664637
0.0343319
0.0732571
0.126104
0.0800572
0.0798559
0.0794701
0.081801
0.0801227
0.034227
0.080479
0.0879274
0.0432674
0.0979251
0.0336816
0.0978418
0.126068
0.0552114
0.0794104
0.0391336
0.0679339
0.128077
0.128047
0.0346604
0.0359142
0.0459623
0.0473484
0.0555073
0.0546372
0.057124
0.0679742
0.0676237
0.0651628
0.0699944
0.0705473
0.0722983
0.0712697
0.0790547
0.0804511
0.0815004
0.0791378
0.0777026
0.0352627
0.0358487
0.0381237
0.0382546
0.0355596
0.0384017
0.038948
0.0386055
0.0341391
0.0351076
0.0383912
0.0348398
0.0375917
0.0383419
0.0343144
0.0383166
0.0358411
0.0336204
0.0381489
0.0357374
0.0351814
0.033759
0.0345956
0.0351459
0.0376179
0.0381782
0.0350571
0.0381962
0.0377592
0.0336762
0.037661
0.0355029
0.0385556
0.0388946
0.0355217
0.0382563
0.0385902
0.0343698
0.0356116
0.0342555
0.0611144
0.0350372
0.0347596
0.0348142
0.00514924
0.00570479
0.0413688
0.0178986
0.00526885
0.0319543
0.0173419
0.0399745
0.0188068
-0.0169096
0.00507585
-0.00635023
0.0470177
0.0517569
0.0178252
0.00640978
-0.00463112
0.0171026
0.031016
0.0178863
0.0299311
0.0346272
0.0184804
0.0513494
0.0274623
0.0269646
-0.00556046
0.0185348
0.0066804
-0.00787959
0.0426994
0.0415098
-0.0183274
-0.0130391
0.0279016
0.0175333
0.032409
0.00231898
0.00705743
0.0315196
0.0176417
0.0285603
0.016878
-0.00717522
0.0181693
0.00581389
0.0412148
0.0286191
-0.00556945
-0.0194661
0.034787
0.0421476
-0.0145489
-0.0411021
0.00339486
0.0207229
0.0469391
0.046826
0.00656455
0.0298442
0.0399626
0.0179366
0.0308703
-0.00550226
0.042862
-0.0168889
0.00615795
0.0427004
0.0503827
0.0266417
0.00696625
-0.00687593
-0.00757643
0.0416902
0.000545037
-0.00987161
-0.0436995
0.0190382
0.0388077
-0.017798
0.0435511
0.0502497
0.00579479
0.042477
0.0509658
0.0402027
-0.00359453
-0.00389052
-0.0208968
0.0328061
0.005954
0.0290326
-0.00981555
-0.0542743
0.0209674
0.0327697
0.0179034
-0.00635771
0.0306166
0.0513999
-0.00743195
-0.0168814
-0.0136967
0.0310878
0.00192122
0.051397
0.051684
-0.056644
-0.0165609
0.0330455
0.0447044
-0.00749353
0.0397042
-0.0225881
0.0536212
0.0542643
0.0295801
-0.00391772
0.0451146
0.0353731
-0.00579461
0.0304975
-0.0236801
0.0266947
-0.0290854
0.0432695
0.0502037
0.0278251
-0.0112893
0.0538818
0.0532881
0.0172983
0.0305809
0.0398951
0.0440669
0.044641
0.050904
-0.0026426
0.0179948
-0.0293026
0.021729
0.0350841
0.031559
0.0317044
-0.0426174
0.0397058
-0.0145563
0.0383419
0.0456676
0.0293963
0.0390838
0.046828
0.026297
0.0249778
0.0399756
-0.0312401
0.0284508
0.0362663
-0.0277472
0.00846756
0.00651862
0.0146338
0.0177332
-0.00620274
0.0245429
-0.0533713
0.0174461
-0.0264945
0.00744563
-0.00775134
-0.018032
-0.00958087
-0.028726
0.0177674
0.0531499
0.0564501
0.0553369
0.037836
0.0266244
0.0535873
0.0407737
0.041016
-0.0128021
0.0341979
-0.0059272
-0.00946488
-0.0186138
0.0264336
0.00293118
-0.0297517
-0.00327875
0.0434944
-0.0185625
-0.00943257
-0.0211783
0.0373959
0.00688469
-0.00469755
-0.0198692
-0.0328935
-0.0222282
-0.00619266
-0.0217771
0.0393964
-0.00863471
0.0216754
-0.0145809
-0.0199013
-0.00281896
-0.0301852
0.0266546
-0.0150319
0.0306649
-0.0201707
0.0428855
0.0557353
0.0578008
0.0558187
0.00585954
0.00265294
0.0407109
0.0435335
-0.0138675
0.039624
-0.0313319
-0.0207923
-0.0396288
0.0421978
0.0147955
0.0417886
0.0518862
-0.00997105
0.044207
0.0432689
0.0444805
0.0492325
0.00512593
-0.0207479
0.0477587
-0.0160049
0.00296711
-0.0120328
0.0295307
0.0403725
0.0401706
0.0488255
0.0411405
0.0473479
0.00258818
-0.00485445
-0.0262781
-0.0143368
0.0373713
0.0370883
0.0370438
0.0368459
-0.00222536
0.0507938
-0.0181143
0.0423717
0.0420914
0.0416872
-0.0148582
0.0381185
-0.0141547
0.0186332
0.0181903
0.046215
-0.0153012
0.000976216
0.0407635
0.0180254
-0.0269104
0.0501691
0.0366248
-0.0112699
0.0520671
0.0484346
0.0419172
0.036641
0.0171425
-0.019208
-0.0506937
0.0175707
0.0306516
-0.00694565
0.0431507
0.0367937
0.0295911
0.0177694
0.00685585
-0.0147065
0.00410409
-0.0259807
-0.00592856
-0.0162131
0.0313206
0.00579916
-0.00793544
-0.0192095
-0.00354513
0.01772
0.00580531
-0.0142381
-0.00617993
-0.0307434
-0.0284081
-0.0165794
0.00589653
-0.0024816
0.00512483
-0.00604704
-0.0527165
-0.00948346
-0.0175875
-0.0157838
-0.0264107
-0.0273333
-0.00416668
0.00542617
-0.0245877
-0.0283179
-0.0236492
0.0509267
-0.0145451
-0.0183532
-0.00551555
-0.00174794
0.0428023
0.00579632
-0.0387319
-0.0176288
-0.0474604
-0.0471457
0.00573814
-0.0298798
-0.0237363
0.0510546
0.0162237
0.0294481
0.0304476
0.0387914
0.00590491
0.00668394
0.0200229
0.0142052
0.00628538
0.0450976
0.0379463
-0.0384318
-0.0191302
-0.0202171
-0.00401793
-0.0264039
-0.00758834
-0.00999679
-0.0167499
-0.018517
-0.0113043
-0.00531375
-0.0282694
-0.0133744
-0.0318646
-0.00654941
0.00552859
-0.036553
-0.0290521
-0.0195215
-0.0259142
-0.00409771
-0.00266395
0.00530702
-0.00640565
-0.0312475
-0.0226887
-0.0164278
-0.0129013
-0.0292174
-0.0380297
-0.0282906
-0.024792
-0.00619013
-0.0246055
-0.00252126
-0.0272756
-0.0379859
-0.021947
-0.0289388
-0.00285105
-0.0031705
-0.0179318
0.00488977
-0.0263782
-0.0251513
-0.0304314
-0.032635
-0.0114953
-0.0359406
-0.0329199
-0.00958219
-0.0161463
-0.0382261
-0.0161218
-0.0138535
-0.0339189
-0.0367226
-0.0371078
-0.0197746
-0.0122023
-0.0195401
-0.0179669
-0.0145184
-0.0154503
-0.00650063
-0.0071754
-0.00592129
-0.00584508
-0.00565972
0.00499769
-0.00582677
0.00558498
0.000952222
0.00590803
0.00590597
0.00599471
0.0187496
0.00583816
0.00441853
0.0103469
0.0196616
0.00717517
0.0179871
0.0134171
0.0210082
0.0177062
0.0178257
0.0178114
0.0177044
0.0175265
0.0223414
0.029656
0.0296609
0.0299252
0.0292236
0.0322865
0.0296167
0.0299668
0.0412692
0.0297952
0.00585548
0.0453959
0.0432959
0.0458772
tri3        
948  
165 95  99
225 336 50
332 351 377
125 123 238
62  90  70
62  162 95
25  90  51
110 26  36
28  35  153
445 444 436
95  36  154
4   62  70
25  70  90
39  219 105
23  43  40
15  25  35
291 167 372
227 77  225
205 198 73
83  4   15
14  82  24
100 14  24
24  111 31
111 3   31
167 266 372
91  62  4
35  25  51
294 168 208
81  79  86
62  95  165
85  239 81
5   162 62
133 150 65
197 23  229
60  47  243
180 85  81
266 97  372
53  259 208
122 128 142
344 169 347
233 228 221
233 244 228
233 247 244
58  127 57
58  131 127
222 233 221
5   62  91
135 81  86
177 218 176
5   1   162
79  22  51
127 131 130
57  127 130
112 183 202
97  71  372
90  165 99
124 7   56
198 88  73
417 420 413
246 81  180
22  79  37
62  165 90
68  133 65
151 150 133
385 388 326
215 222 113
215 234 233
222 215 233
245 247 233
234 245 233
245 253 247
245 144 120
253 245 120
128 143 142
68  151 133
83  91  4
113 181 215
245 254 144
112 202 270
38  75  64
134 151 68
119 134 68
134 181 151
192 215 181
182 192 181
192 235 234
215 192 234
235 245 234
235 8   245
245 99  254
254 99  144
217 218 116
182 181 134
16  17  220
255 99  245
8   255 245
75  12  64
15  4   25
4   70  25
218 217 176
86  79  51
74  79  81
8   99  255
106 134 119
2   249 197
49  242 101
43  157 40
150 174 345
136 134 106
107 136 106
32  8   235
149 32  235
90  99  8
32  90  8
236 85  231
15  28  237
107 126 136
20  21  63
132 55  160
35  51  22
83  15  237
202 53  44
311 309 281
132 160 55
272 311 281
28  15  35
178 90  32
239 74  81
131 177 176
355 332 382
130 131 176
126 137 136
252 53  202
107 57  126
57  130 137
126 57  137
130 176 175
137 130 175
176 217 216
175 176 216
116 115 216
217 116 216
135 86  32
86  178 32
51  90  178
86  51  178
180 81  246
401 408 368
264 84  122
218 180 116
150 133 65
179 188 117
143 179 117
327 121 320
58  84  268
305 392 295
356 355 360
129 30  12
268 274 131
49  17  11
302 303 267
197 67  23
231 85  218
248 14  244
111 82  14
272 179 267
111 14  248
279 278 268
49  11  330
259 12  276
2   197 229
155 248 244
155 111 248
264 142 271
155 61  111
61  155 111
155 61  111
12  75  38
275 6   52
253 155 244
120 253 244
110 111 61
40  3   111
110 40  111
33  129 30
33  129 12
310 301 312
253 120 155
74  146 256
68  65  260
33  30  129
259 276 44
155 120 61
120 110 61
138 257 249
271 268 84
236 239 85
268 131 58
259 33  12
303 311 272
52  239 236
267 303 272
6   37  256
52  236 231
52  146 74
287 52  231
288 275 287
120 26  110
11  41  290
121 49  330
275 52  287
277 231 218
11  17  16
52  6   146
44  12  202
177 277 218
144 26  120
159 208 168
361 322 358
131 274 277
123 199 238
271 279 268
78  219 39
16  7   41
281 188 179
272 281 179
259 208 33
67  59  23
280 288 279
156 140 173
122 142 264
289 42  275
288 289 275
277 177 131
290 289 206
275 42  6
289 288 280
330 11  290
17  101 220
128 179 143
274 268 277
253 120 244
117 280 142
42  124 6
117 289 280
143 117 142
208 159 33
277 278 231
102 103 164
300 299 295
288 287 279
6   256 146
132 160 71
276 12  44
33  159 251
206 289 117
74  37  79
121 330 320
298 392 301
85  180 218
18  78  39
256 37  74
264 271 84
250 249 2
287 231 278
12  38  67
44  53  259
268 278 277
280 279 271
142 280 271
52  74  239
48  37  6
202 67  270
202 12  67
310 311 303
301 310 303
183 34  252
279 287 278
244 247 253
417 428 420
97  132 71
67  257 112
66  336 190
114 375 408
145 140 156
227 225 140
359 401 397
31  92  204
227 140 145
47  329 243
308 305 299
71  160 55
104 266 285
444 262 447
18  39  29
89  201 240
73  171 212
139 18  29
36  2   229
296 300 295
19  132 141
19  60  132
208 259 53
189 71  55
105 88  198
223 49  121
326 327 312
327 282 121
55  160 293
387 300 296
139 60  18
49  101 17
60  243 18
297 122 84
11  16  41
243 92  18
226 10  212
315 323 385
327 326 282
171 226 212
18  92  78
145 77  227
156 10  226
160 132 29
173 140 171
132 139 29
282 265 121
265 223 121
140 156 226
140 226 171
315 326 314
387 296 391
293 160 29
133 150 345
425 428 417
50  336 66
315 314 305
112 270 67
10  72  73
212 10  73
307 317 354
308 315 305
326 312 314
41  42  289
290 41  289
41  7   42
7   124 42
23  40  110
166 313 77
300 308 299
145 166 77
313 108 77
377 382 332
166 108 313
156 173 331
36  229 23
46  185 161
43  63  157
3   40  63
59  43  23
50  72  10
281 117 188
281 206 117
156 331 145
281 290 206
320 281 309
163 78  21
21  78  92
330 290 281
320 330 281
157 63  40
373 409 376
191 2   1
2   36  1
43  20  63
36  162 1
191 1   98
36  23  110
77  54  225
162 36  95
50  10  156
225 50  156
30  64  12
161 163 20
77  334 54
154 26  144
72  50  66
3   21  31
63  21  3
56  9   6
170 1   5
7   9   56
36  26  154
161 219 163
219 78  163
16  335 7
335 9   7
333 77  94
9   48  6
99  154 144
95  154 99
220 335 16
333 334 77
94  77  108
101 335 220
161 20  46
20  163 21
341 133 345
46  20  43
28  48  9
28  37  48
81  116 180
46  43  59
72  185 46
237 28  9
335 237 9
333 94  334
28  153 37
224 65  341
237 335 118
153 22  37
135 149 116
116 149 115
153 35  22
6   124 56
338 69  192
334 94  283
257 67  197
136 175 348
184 181 196
118 286 237
183 112 64
355 319 353
115 235 69
72  66  185
136 137 175
192 216 338
338 216 115
64  34  183
134 136 182
136 348 182
111 24  82
158 181 184
150 158 184
228 148 221
13  24  31
152 100 47
175 216 192
100 329 47
115 149 235
150 151 158
221 148 285
80  187 337
69  235 192
397 358 357
100 24  13
329 100 13
338 115 69
357 359 397
339 344 343
224 341 340
266 104 97
342 224 340
348 175 192
183 252 202
135 116 81
13  31  204
346 344 339
148 228 104
34  109 252
96  21  92
182 348 192
346 347 344
158 151 181
104 228 19
67  241 59
346 345 347
147 33  109
446 126 445
31  96  92
125 374 375
138 250 73
345 346 339
345 169 347
13  204 329
285 148 104
241 67  38
345 174 169
315 385 323
108 283 94
77  54  108
108 54  283
283 54  334
166 77  108
316 203 292
166 145 77
408 375 368
145 54  77
389 390 93
156 145 331
145 225 54
433 432 435
156 190 145
145 190 225
190 336 54
225 190 54
147 30  33
383 89  210
332 317 351
332 354 317
358 368 367
361 358 367
368 375 374
367 368 374
374 408 375
389 93  170
171 66  156
156 66  190
329 204 92
414 422 415
357 332 359
243 329 92
169 344 347
114 199 123
125 114 123
240 201 316
332 357 358
373 27  103
376 373 103
27  164 103
409 373 376
73  88  66
171 73  66
88  185 66
64  109 12
64  30  109
371 286 232
390 371 232
132 19  141
34  64  109
369 307 322
375 114 125
286 325 269
232 286 269
337 273 187
225 156 140
364 370 373
87  194 164
209 64  112
381 306 203
357 358 322
347 355 353
347 169 355
169 360 355
365 291 370
364 365 370
291 372 373
370 291 373
372 71  27
373 372 27
71  189 27
189 55  27
55  164 27
55  87  164
55  29  87
29  39  87
39  198 87
39  105 198
105 219 88
219 161 88
161 185 88
59  241 209
241 38  64
209 241 64
341 65  133
344 169 347
401 368 358
397 401 358
55  293 29
97  104 19
347 169 344
250 138 249
201 210 200
80  223 282
328 309 310
344 347 353
384 389 170
201 89  210
286 187 325
242 49  80
17  101 80
304 101 80
324 106 452
101 304 187
101 17  80
322 354 332
237 286 371
390 232 93
101 286 118
109 64  12
187 304 80
89  383 210
83  237 390
101 242 80
46  73  72
1   170 98
46  138 73
286 101 187
138 46  59
200 379 306
209 138 59
357 332 358
306 381 203
379 350 306
170 93  316
193 263 76
362 193 76
292 203 238
259 294 208
273 80  378
325 187 269
269 187 89
91  390 389
170 316 292
98  170 292
80  321 378
5   384 170
380 318 369
201 203 316
93  240 316
307 354 322
371 390 237
49  223 80
207 362 186
362 207 186
93  232 240
357 322 332
191 172 186
250 191 186
207 199 362
199 193 362
91  389 384
306 125 238
328 312 327
5   91  384
191 250 2
207 362 186
172 207 186
203 306 238
109 30  147
309 311 310
335 101 118
91  83  390
80  337 187
225 54  336
355 382 319
232 269 240
187 273 210
89  187 210
201 200 203
328 327 320
309 328 320
310 312 328
436 444 447
200 306 203
98  172 191
172 98  207
98  292 207
238 199 207
292 238 207
407 125 306
400 403 401
374 375 408
301 305 312
305 314 312
408 214 114
209 112 257
404 403 400
364 404 400
30  129 33
404 376 403
364 400 360
195 193 199
194 87  76
401 214 408
273 337 80
80  282 321
301 303 298
295 299 305
300 323 315
308 300 315
323 385 315
378 282 326
388 378 326
282 378 321
356 359 332
102 103 263
364 376 404
198 205 76
103 102 263
300 385 323
263 164 194
319 344 353
300 323 385
300 394 323
323 394 385
138 209 257
87  198 76
187 80  337
223 265 282
186 362 76
366 361 367
387 393 394
300 387 394
394 393 385
393 395 385
395 399 388
385 395 388
405 378 388
399 405 388
405 210 378
210 273 378
400 401 359
360 400 359
102 164 263
263 194 76
103 102 376
205 73  250
32  149 135
425 438 428
360 359 356
401 403 214
205 250 186
352 318 387
391 352 387
318 393 387
393 318 395
318 396 395
396 398 399
395 396 399
398 406 405
399 398 405
200 210 405
406 200 405
269 89  240
76  205 186
319 353 355
244 19  228
398 386 406
386 200 406
263 193 195
102 263 195
19  132 97
350 379 200
386 350 200
251 159 168
294 251 168
380 363 396
318 380 396
396 363 398
363 366 398
366 402 398
402 350 386
398 402 386
376 195 214
214 195 114
376 102 195
355 353 319
343 344 319
376 214 403
452 262 444
33  251 294
259 33  294
114 195 199
352 410 369
356 332 355
340 341 345
373 376 364
340 345 339
369 322 380
361 363 380
361 366 363
367 366 363
366 367 363
407 350 402
366 407 402
109 259 53
259 109 33
306 350 407
298 303 302
53  252 109
322 361 380
385 326 315
374 407 366
367 374 366
374 350 407
350 374 407
374 125 407
107 106 324
440 435 432
19  244 230
84  58  261
448 84  261
419 426 430
440 442 435
442 443 435
258 107 324
392 426 419
436 438 445
258 324 453
392 419 295
297 441 442
441 297 442
132 60  139
295 414 296
96  31  21
429 433 435
423 425 416
295 421 414
426 297 430
415 423 416
426 122 297
297 441 432
453 324 452
297 84  448
432 442 440
446 445 437
430 297 432
451 57  107
302 122 434
107 258 453
415 416 412
391 414 387
19  230 60
60  230 47
387 415 412
302 434 426
249 257 197
412 417 413
301 392 305
423 437 425
47  230 152
128 122 302
413 420 357
296 414 391
352 391 412
443 57  126
410 352 413
248 244 14
331 173 156
452 119 68
365 45  291
291 45  167
167 211 266
266 211 285
443 437 435
230 100 152
365 450 45
450 284 45
419 421 295
364 450 365
213 285 211
45  211 167
421 429 423
45  213 211
248 230 244
230 248 100
128 267 179
57  451 261
414 421 422
360 169 364
364 169 450
416 425 417
297 448 261
213 221 285
437 438 425
352 412 413
441 442 432
284 213 45
452 68  262
169 174 450
450 174 284
427 343 319
382 427 319
213 349 221
267 128 302
427 339 343
150 284 174
150 213 284
439 339 427
434 122 426
150 184 213
415 422 423
173 171 156
369 318 352
351 382 377
68  260 262
184 113 213
213 113 349
349 113 221
433 432 435
449 340 339
439 449 339
421 432 433
113 222 221
429 421 433
432 433 435
418 382 351
423 429 435
424 427 382
418 424 382
57  261 58
452 106 119
297 261 441
387 414 415
307 351 317
449 342 340
416 417 412
437 445 438
260 342 449
298 426 392
443 126 446
451 107 453
411 351 307
342 260 224
356 418 351
411 356 351
260 65  224
411 357 351
357 411 351
357 356 411
356 420 418
248 14  100
196 113 184
181 113 196
420 356 357
302 426 298
391 387 412
447 260 449
447 262 260
435 437 423
422 421 423
410 411 307
369 410 307
413 357 411
410 413 411
443 446 437
436 424 431